// This file is generated automatically. All manually added changes will be removed when running the Converter.
// Map 018-2: Heroes' Hold - Outside mobs
018-2,40,35,20,6	monster	Moonshroom	1069,2,120000,40000
018-2,21,46,0,0	monster	Poison Fairy	1186,6,120000,40000
018-2,93,37,29,10	monster	Green Dragon	1195,2,120000,40000
018-2,108,64,12,11	monster	Earth Fairy	1182,4,120000,40000
018-2,91,89,36,12	monster	Grass Snake	1169,6,120000,40000
