// This file is generated automatically. All manually added changes will be removed when running the Converter.
// Map 015-4: Woodland Mines mobs
015-4,49,25,35,12	monster	Angry Bat	1194,15,60000,60000
015-4,56,36,35,12	monster	Silk worm	1034,15,60000,70000
015-4,72,23,15,15	monster	Red Slime	1092,4,60000,60000
015-4,54,21,29,14	monster	Ruby Bif	1099,1,90000,90000
