// This file is generated automatically. All manually added changes will be removed when running the Converter.
// Map 017-2: Jack's House warps
017-2,41,32,0	warp	#017-2_41_32	0,0,017-1,119,61
017-2,31,30,0	warp	#017-2_31_30	0,0,017-2-1,121,116
