// This file is generated automatically. All manually added changes will be removed when running the Converter.
// Map 018-1: Sincerity warps
018-1,54,37,0	warp	#018-1_54_37	0,0,018-1-1,33,77
018-1,32,67,0	warp	#018-1_32_67	0,0,017-1,152,223
