// This file is generated automatically. All manually added changes will be removed when running the Converter.
// Map 012-2: Hurnscald Inn warps
012-2,36,47,0	warp	#012-2_36_47	0,0,012-1,65,56
012-2,59,83,0	warp	#012-2_59_83	0,0,012-2,59,39
