// Map 005-1: Candor Island
// This file is generated automatically. All manually added changes will be removed when running the Converter.
"npc/005-1/_mobs.txt",
"npc/005-1/_warps.txt",
"npc/005-1/ayasha.txt",
"npc/005-1/liana.txt",
"npc/005-1/mapflags.txt",
"npc/005-1/maya.txt",
"npc/005-1/sailors.txt",
"npc/005-1/ship.txt",
"npc/005-1/soul-menhir.txt",
"npc/005-1/vincent.txt",
"npc/005-1/warpcandorbattle.txt",
"npc/005-1/wateranimation.txt",
"npc/005-1/zegas.txt",
