// This file is generated automatically. All manually added changes will be removed when running the Converter.
// Map 012-5: Indoors warps
012-5,34,37,0	warp	#012-5_34_37	0,0,012-1,121,72
012-5,23,27,0	warp	#012-5_23_27	0,0,012-1,116,67
