// This file is generated automatically. All manually added changes will be removed when running the Converter.
// Map 003-2-2: Second Deck warps
003-2-2,72,30,0	warp	#003-2-2_72_30	0,0,003-2-1,31,26
