// TMW-2 Script.
// Author:
//    Saulc
//    Jesusalva

012-1,65,64,0	script	Richard	NPC_LLOYD,{
    Banker(.name$, "Hurnscald", 14000);
    close;

OnInit:
    .sex = G_MALE;
    .distance = 4;
    end;
}
