// TMW-2 Script.
// Author:
//    Saulc
//    Jesusalva

005-5,30,37,0	script	Cynric	NPC_LLOYD,{
    Banker(.name$, "Candor", 7700);
    close;

OnInit:
    .sex = G_MALE;
    .distance = 4;
    end;
}

