// Map 003-0: Magic Academy
// This file is generated automatically. All manually added changes will be removed when running the Converter.
"npc/003-0/_warps.txt",
"npc/003-0/audsbel.txt",
"npc/003-0/berserk.txt",
"npc/003-0/mages.txt",
"npc/003-0/paladin.txt",
"npc/003-0/priest.txt",
"npc/003-0/sage.txt",
"npc/003-0/tanker.txt",
"npc/003-0/warriors.txt",
"npc/003-0/wizard.txt",
