// This file is generated automatically. All manually added changes will be removed when running the Converter.
// Map 003-1-1: Tulimshar Sewers mobs
003-1-1,108,76,68,75	monster	Cave Maggot	1027,45,35000,300000
003-1-1,85,72,65,72	monster	Black Scorpion	1074,28,35000,300000
003-1-1,80,87,71,71	monster	Ratto	1005,32,35000,300000
