48
51
54
57
60
64
68
72
76
82
87
92
97
102
108
114
120
127
134
145
153
161
169
177
185
194
203
212
222
237
248
259
270
281
293
305
317
330
343
363
377
391
405
420
435
450
466
482
498
522
539
556
573
591
609
627
645
663
681
708
727
746
765
785
805
825
846
867
888
919
941
963
985
1007
1029
1051
1073
1095
1117
1150
1173
1196
1219
1242
1265
1288
1311
1334
1357
1391
1414
1437
1460
1483
1506
1529
1552
1575
1598
1648
1670
1692
1713
1734
1754
1774
1793
1812
1830
1848
1865
1882
1898
1914
1930
1945
1959
1973
1986
1999
2011
2023
2034
2045
2061
2072
2083
2094
2105
2127
2138
2149
2160
2171
2187
2198
2209
2220
2231
2253
2264
2275
2286
2297
2313
2324
2335
2346
2357
2407
2418
2429
2440
2451
2467
2478
2489
2500
2511
2533
2544
2555
2566
2577
2593
2604
2615
2626
2637
2659
2670
2681
2692
2703
2719
2730
2741
2752
2763
2785
2796
2807
2818
2829
2845
2856
2867
2878
2889
2911
2922
2933
2944
2955
2971
2982
2993
3004
3015
3065
3076
3087
3098
3109
3125
3136
3147
3158
3169
3191
3202
3213
3224
3235
3251
3262
3273
3284
3295
3317
3328
3339
3350
3361
3377
3388
3399
3410
3421
3443
3454
3465
3476
3487
3503
3514
3525
3536
3547
3569
3580
3591
3602
3613
3624
3635
3646
3657
3668
3713
3724
3735
3746
3757
3768
