// This file is generated automatically. All manually added changes will be removed when running the Converter.
// Map 015-3: Butterfly Caves mobs
015-3,160,179,19,18	monster	Cave Bat	1039,28,30000,40000
015-3,142,31,24,14	monster	Green Slime	1085,5,30000,40000
015-3,102,105,81,87	monster	Small Emerald Bif	1104,6,45000,45000
