// This file is generated automatically. All manually added changes will be removed when running the Converter.
// Map 015-3: Butterfly Caves warps
015-3,152,162,0	warp	#015-3_152_162	0,0,015-3,123,38
015-3,171,161,0	warp	#015-3_171_161	0,0,015-3,147,39
015-3,172,196,0	warp	#015-3_172_196	0,0,014-3,158,143
015-3,123,39,0	warp	#015-3_123_39	0,0,015-3,152,163
015-3,147,40,0	warp	#015-3_147_40	0,0,015-3,171,162
