// This file is generated automatically. All manually added changes will be removed when running the Converter.
// Map 018-1-1: Sincerity Island Cave warps
018-1-1,33,78,0	warp	#018-1-1_33_78	0,0,018-1,54,38
